Analyzing eCLIP/iCLIP data with DEWSeq
…
ddw <- estimateDispersions(ddw)
ddw <- nbinomWaldTest(ddw)

This performes a one-sided signficance test, looking for enrichment in the IP samples vs the SMI controls. Also it will perform a correction for p-values of overlapping windows: The function will determine how many overlapping windows for each window there are (this can vary at the end of features, e.g.a gene) and then perform Bonferroni for each window.

These family-wise corrected windows will corrected for multiple testing with Benjamini-Hochberg.

resultWindows <- resultsDEWSeq(ddw,
                              contrast = c("type", "IP", "SMI"),
                              tidy = TRUE) %>% as_tibble

resultWindows

## # A tibble: 4,277 x 20
##    unique_id chromosome  begin    end width strand gene_id gene_name
##    <chr>     <chr>       <dbl>  <int> <int> <fct>  <chr>   <chr>    
##  1 ENSG0000 chr1       1.06e6 1.06e6    50 +      ENSG00 AGRN     
##  2 ENSG0000 chr1       1.06e6 1.06e6    50 +      ENSG00 AGRN     
##  3 ENSG0000 chr1       1.06e6 1.06e6    50 +      ENSG00 AGRN     
##  4 ENSG0000 chr1       7.96e6 7.96e6    50 +      ENSG00 PARK7    
##  5 ENSG0000 chr1       1.10e7 1.10e7    50 +      ENSG00 TARDBP   
##  6 ENSG0000 chr1       1.10e7 1.10e7    50 +      ENSG00 AL109811
##  7 ENSG0000 chr1       1.10e7 1.10e7    50 +      ENSG00 TARDBP   
##  8 ENSG0000 chr1       1.69e7 1.69e7    50 +      ENSG00 CROCC    
##  9 ENSG0000 chr1       1.69e7 1.69e7    50 +      ENSG00 CROCC    
## 10 ENSG0000 chr1       2.37e7 2.37e7    50 +      ENSG00 RPL11    
## #  with 4,267 more rows, and 12 more variables: gene_type <chr>,
## #   gene_region <chr>, Nr_of_region <int>, Total_nr_of_region <int>,
## #   window_number <int>, baseMean <dbl>, log2FoldChange <dbl>, lfcSE <dbl>,
## #   stat <dbl>, pvalue <dbl>, pBonferroni <dbl>, pBonferroni.adj <dbl>
…
4.6 Combining regions

resultWindows contains information about the differential expression of windows. Now we would like to combine overlapping windows to a binding region.

resultRegions <- extractRegions(windowRes  = resultWindows,
                                padjCol    = "p_adj_IHW",
                                padjThresh = 0.05, 
                                log2FoldChangeThresh = 0.5) %>% as_tibble

Since we already corrected for the family wise error, we use the extractRegions function to combine the overlapping significant windows and provide metrics for best and worst p-adjusted value, as well as best and worst log2 fold change.

resultRegions

## # A tibble: 134 x 21
##    chromosome region_begin region_end strand windows_in_regi region_length
##    <chr>             <dbl>      <int> <fct>             <dbl>         <int>
##  1 chr1           21727930   21728020 -                     2            90
##  2 chr1           35189325   35189375 -                     1            50
##  3 chr1          149812085  149812155 -                     2            70
##  4 chr1          149813270  149813380 -                     4           110
##  5 chr1          149813410  149813460 -                     1            50
##  6 chr1          149840677  149840767 -                     3            90
##  7 chr1          149842207  149842357 -                     6           150
##  8 chr1          149852978  149853048 +                     2            70
##  9 chr1          149884678  149884728 -                     1            50
## 10 chr1          149886078  149886388 -                    13           310
## #  with 124 more rows, and 15 more variables: padj_min <dbl>,
## #   padj_mean <dbl>, padj_max <dbl>, log2FoldChange_min <dbl>,
## #   log2FoldChange_mean <dbl>, log2FoldChange_max <dbl>,
## #   regionStartId <chr>, gene_id <fct>, gene_name <chr>, gene_type <chr>,
## #   gene_region <chr>, Nr_of_region <dbl>, Total_nr_of_region <dbl>,
## #   window_number <dbl>, unique_ids <chr>
…
